Lab1/PreLab/simulation/qsim/ClockDividerCircuit.msim.vcd
$comment
	File created using the following command:
		vcd file ClockDividerCircuit.msim.vcd -direction
$end
$date
	Wed Sep 04 22:23:37 2019
$end
$version
	ModelSim Version 10.1d
$end
$timescale
	1ps
$end
$scope module ClockDividerCircuit_vlg_vec_tst $end
$var reg 1 ! Clock $end
$var reg 1 " Reset_n $end
$var wire 1 # ClockOut $end
$var wire 1 $ sampler $end
$scope module i1 $end
$var wire 1 % gnd $end
$var wire 1 & vcc $end
$var wire 1 ' unknown $end
$var tri1 1 ( devclrn $end
$var tri1 1 ) devpor $end
$var tri1 1 * devoe $end
$var wire 1 + Reset_n~input_o $end
$var wire 1 , ClockOut~output_o $end
$var wire 1 - Clock~input_o $end
$var wire 1 . Clock~inputclkctrl_outclk $end
$var wire 1 / Count~0_combout $end
$var wire 1 0 Count[1]~1_combout $end
$var wire 1 1 Count~2_combout $end
$var wire 1 2 ClkOutSig~0_combout $end
$var wire 1 3 ClkOutSig~q $end
$var wire 1 4 Count [2] $end
$var wire 1 5 Count [1] $end
$var wire 1 6 Count [0] $end
$upscope $end
$upscope $end
$enddefinitions $end
#0
$dumpvars
0!
x"
x#
x$
0%
1&
x'
1(
1)
1*
x+
x,
0-
x.
x/
x0
x1
x2
03
06
05
04
$end
#378
0.
#426
01
#429
00
#682
02
#716
1/
#2963
0,
0#
#10000
1!
0$
#10527
1-
#10917
1.
#12555
16
#12920
10
#12924
0/
#20000
0!
1$
#20701
0-
#21079
0.
#30000
1!
0$
#30527
1-
#30917
1.
#32555
06
15
#32908
1/
#40000
0!
1$
#40701
0-
#41079
0.
#50000
1!
0$
#50527
1-
#50917
1.
#52555
16
#52910
00
#52924
0/
#53164
11
#60000
0!
1$
#60701
0-
#61079
0.
#70000
1!
0$
#70527
1-
#70917
1.
#72555
06
05
14
#73252
01
#73277
12
#80000
0!
1$
#80701
0-
#81079
0.
#90000
1!
0$
#90527
1-
#90917
1.
#92555
04
13
#93271
1/
#95595
1,
1#
#100000
0!
1$
#100701
0-
#101079
0.
#110000
1!
0$
#110527
1-
#110917
1.
#112555
16
#112920
10
#112924
0/
#120000
0!
1$
#120701
0-
#121079
0.
#130000
1!
0$
#130527
1-
#130917
1.
#132555
06
15
#132908
1/
#140000
0!
1$
#140701
0-
#141079
0.
#150000
1!
0$
#150527
1-
#150917
1.
#152555
16
#152910
00
#152924
0/
#153164
11
#160000
0!
1$
#160701
0-
#161079
0.
#170000
1!
0$
#170527
1-
#170917
1.
#172555
06
05
14
#173252
01
#173282
02
#180000
0!
1$
#180701
0-
#181079
0.
#190000
1!
0$
#190527
1-
#190917
1.
#192555
04
03
#193271
1/
#195518
0,
0#
#200000
0!
1$
#200701
0-
#201079
0.
#210000
1!
0$
#210527
1-
#210917
1.
#212555
16
#212920
10
#212924
0/
#220000
0!
1$
#220701
0-
#221079
0.
#230000
1!
0$
#230527
1-
#230917
1.
#232555
06
15
#232908
1/
#240000
0!
1$
#240701
0-
#241079
0.
#250000
1!
0$
#250527
1-
#250917
1.
#252555
16
#252910
00
#252924
0/
#253164
11
#260000
0!
1$
#260701
0-
#261079
0.
#270000
1!
0$
#270527
1-
#270917
1.
#272555
06
05
14
#273252
01
#273277
12
#280000
0!
1$
#280701
0-
#281079
0.
#290000
1!
0$
#290527
1-
#290917
1.
#292555
04
13
#293271
1/
#295595
1,
1#
#300000
0!
1$
#300701
0-
#301079
0.
#310000
1!
0$
#310527
1-
#310917
1.
#312555
16
#312920
10
#312924
0/
#320000
0!
1$
#320701
0-
#321079
0.
#330000
1!
0$
#330527
1-
#330917
1.
#332555
06
15
#332908
1/
#340000
0!
1$
#340701
0-
#341079
0.
#350000
1!
0$
#350527
1-
#350917
1.
#352555
16
#352910
00
#352924
0/
#353164
11
#360000
0!
1$
#360701
0-
#361079
0.
#370000
1!
0$
#370527
1-
#370917
1.
#372555
06
05
14
#373252
01
#373282
02
#380000
0!
1$
#380701
0-
#381079
0.
#390000
1!
0$
#390527
1-
#390917
1.
#392555
04
03
#393271
1/
#395518
0,
0#
#400000
0!
1$
#400701
0-
#401079
0.
#410000
1!
0$
#410527
1-
#410917
1.
#412555
16
#412920
10
#412924
0/
#420000
0!
1$
#420701
0-
#421079
0.
#430000
1!
0$
#430527
1-
#430917
1.
#432555
06
15
#432908
1/
#440000
0!
1$
#440701
0-
#441079
0.
#450000
1!
0$
#450527
1-
#450917
1.
#452555
16
#452910
00
#452924
0/
#453164
11
#460000
0!
1$
#460701
0-
#461079
0.
#470000
1!
0$
#470527
1-
#470917
1.
#472555
06
05
14
#473252
01
#473277
12
#480000
0!
1$
#480701
0-
#481079
0.
#490000
1!
0$
#490527
1-
#490917
1.
#492555
04
13
#493271
1/
#495595
1,
1#
#500000
0!
1$
#500701
0-
#501079
0.
#510000
1!
0$
#510527
1-
#510917
1.
#512555
16
#512920
10
#512924
0/
#520000
0!
1$
#520701
0-
#521079
0.
#530000
1!
0$
#530527
1-
#530917
1.
#532555
06
15
#532908
1/
#540000
0!
1$
#540701
0-
#541079
0.
#550000
1!
0$
#550527
1-
#550917
1.
#552555
16
#552910
00
#552924
0/
#553164
11
#560000
0!
1$
#560701
0-
#561079
0.
#570000
1!
0$
#570527
1-
#570917
1.
#572555
06
05
14
#573252
01
#573282
02
#580000
0!
1$
#580701
0-
#581079
0.
#590000
1!
0$
#590527
1-
#590917
1.
#592555
04
03
#593271
1/
#595518
0,
0#
#600000
0!
1$
#600701
0-
#601079
0.
#610000
1!
0$
#610527
1-
#610917
1.
#612555
16
#612920
10
#612924
0/
#620000
0!
1$
#620701
0-
#621079
0.
#630000
1!
0$
#630527
1-
#630917
1.
#632555
06
15
#632908
1/
#640000
0!
1$
#640701
0-
#641079
0.
#650000
1!
0$
#650527
1-
#650917
1.
#652555
16
#652910
00
#652924
0/
#653164
11
#660000
0!
1$
#660701
0-
#661079
0.
#670000
1!
0$
#670527
1-
#670917
1.
#672555
06
05
14
#673252
01
#673277
12
#680000
0!
1$
#680701
0-
#681079
0.
#690000
1!
0$
#690527
1-
#690917
1.
#692555
04
13
#693271
1/
#695595
1,
1#
#700000
0!
1$
#700701
0-
#701079
0.
#710000
1!
0$
#710527
1-
#710917
1.
#712555
16
#712920
10
#712924
0/
#720000
0!
1$
#720701
0-
#721079
0.
#730000
1!
0$
#730527
1-
#730917
1.
#732555
06
15
#732908
1/
#740000
0!
1$
#740701
0-
#741079
0.
#750000
1!
0$
#750527
1-
#750917
1.
#752555
16
#752910
00
#752924
0/
#753164
11
#760000
0!
1$
#760701
0-
#761079
0.
#770000
1!
0$
#770527
1-
#770917
1.
#772555
06
05
14
#773252
01
#773282
02
#780000
0!
1$
#780701
0-
#781079
0.
#790000
1!
0$
#790527
1-
#790917
1.
#792555
04
03
#793271
1/
#795518
0,
0#
#800000
0!
1$
#800701
0-
#801079
0.
#810000
1!
0$
#810527
1-
#810917
1.
#812555
16
#812920
10
#812924
0/
#820000
0!
1$
#820701
0-
#821079
0.
#830000
1!
0$
#830527
1-
#830917
1.
#832555
06
15
#832908
1/
#840000
0!
1$
#840701
0-
#841079
0.
#850000
1!
0$
#850527
1-
#850917
1.
#852555
16
#852910
00
#852924
0/
#853164
11
#860000
0!
1$
#860701
0-
#861079
0.
#870000
1!
0$
#870527
1-
#870917
1.
#872555
06
05
14
#873252
01
#873277
12
#880000
0!
1$
#880701
0-
#881079
0.
#890000
1!
0$
#890527
1-
#890917
1.
#892555
04
13
#893271
1/
#895595
1,
1#
#900000
0!
1$
#900701
0-
#901079
0.
#910000
1!
0$
#910527
1-
#910917
1.
#912555
16
#912920
10
#912924
0/
#920000
0!
1$
#920701
0-
#921079
0.
#930000
1!
0$
#930527
1-
#930917
1.
#932555
06
15
#932908
1/
#940000
0!
1$
#940701
0-
#941079
0.
#950000
1!
0$
#950527
1-
#950917
1.
#952555
16
#952910
00
#952924
0/
#953164
11
#960000
0!
1$
#960701
0-
#961079
0.
#970000
1!
0$
#970527
1-
#970917
1.
#972555
06
05
14
#973252
01
#973282
02
#980000
0!
1$
#980701
0-
#981079
0.
#990000
1!
0$
#990527
1-
#990917
1.
#992555
04
03
#993271
1/
#995518
0,
0#
